{
  "timestamp": 1534345917203,
  "webhookEvent": "jira:issue_created",
  "issue_event_type_name": "issue_created",
  "user": {
    "self": "https://jiratest.sword-apak.com/test/rest/api/2/user?username=john.bartlett",
    "name": "john.bartlett",
    "key": "john.bartlett",
    "emailAddress": "john.bartlett@apakgroup.int",
    "avatarUrls": {
      "48x48": "https://jiratest.sword-apak.com/test/secure/useravatar?ownerId=john.bartlett&avatarId=10678",
      "24x24": "https://jiratest.sword-apak.com/test/secure/useravatar?size=small&ownerId=john.bartlett&avatarId=10678",
      "16x16": "https://jiratest.sword-apak.com/test/secure/useravatar?size=xsmall&ownerId=john.bartlett&avatarId=10678",
      "32x32": "https://jiratest.sword-apak.com/test/secure/useravatar?size=medium&ownerId=john.bartlett&avatarId=10678"
    },
    "displayName": "John Bartlett",
    "active": "True",
    "timeZone": "Europe/London"
  },
  "issue": {
    "id": "300164",
    "self": "https://jiratest.sword-apak.com/test/rest/api/2/issue/300164",
    "key": "SX-39637",
    "fields": {
      "customfield_10070": null,
      "customfield_10191": null,
      "customfield_12370": null,
      "customfield_11160": null,
      "customfield_11161": {
        "self": "https://jiratest.sword-apak.com/test/rest/api/2/customFieldOption/12194",
        "value": "WFSv6",
        "id": "12194"
      },
      "customfield_12371": null,
      "customfield_12374": null,
      "customfield_11163": null,
      "customfield_12373": null,
      "customfield_11164": null,
      "customfield_10230": {
        "self": "https://jiratest.sword-apak.com/test/rest/api/2/customFieldOption/11391",
        "value": "I1",
        "id": "11391"
      },
      "customfield_12376": null,
      "customfield_11165": null,
      "fixVersions": [],
      "customfield_11166": null,
      "customfield_11960": null,
      "customfield_11167": null,
      "customfield_12378": null,
      "resolution": null,
      "customfield_10112": null,
      "customfield_11168": [
        {
          "self": "https://jiratest.sword-apak.com/test/rest/api/2/customFieldOption/14974",
          "value": "Branch N/A",
          "id": "14974"
        }
      ],
      "customfield_11169": null,
      "customfield_11962": null,
      "customfield_11961": null,
      "customfield_12379": null,
      "customfield_12404": null,
      "customfield_12403": null,
      "customfield_12406": null,
      "customfield_12405": null,
      "customfield_12407": null,
      "lastViewed": null,
      "customfield_10060": null,
      "customfield_12361": null,
      "customfield_12360": null,
      "customfield_12363": null,
      "customfield_12362": [
        "Role: 10131 (null)",
        "Role: 10130 (null)"
      ],
      "customfield_10461": "2|i0ffqv:",
      "customfield_12365": null,
      "customfield_10462": null,
      "customfield_10220": null,
      "customfield_12364": null,
      "priority": {
        "self": "https://jiratest.sword-apak.com/test/rest/api/2/priority/3",
        "iconUrl": "https://jiratest.sword-apak.com/test/images/icons/priorities/major.svg",
        "name": "Major",
        "id": "3"
      },
      "customfield_10463": null,
      "customfield_12367": null,
      "customfield_12366": null,
      "customfield_12369": null,
      "customfield_12402": null,
      "labels": [],
      "customfield_12368": null,
      "aggregatetimeoriginalestimate": null,
      "timeestimate": null,
      "versions": [],
      "issuelinks": [],
      "assignee": null,
      "status": {
        "self": "https://jiratest.sword-apak.com/test/rest/api/2/status/11220",
        "description": "",
        "iconUrl": "https://jiratest.sword-apak.com/test/images/icons/statuses/generic.png",
        "name": "Sprint Preparation",
        "id": "11220",
        "statusCategory": {
          "self": "https://jiratest.sword-apak.com/test/rest/api/2/statuscategory/2",
          "id": 2,
          "key": "new",
          "colorName": "blue-gray",
          "name": "To Do"
        }
      },
      "components": [],
      "customfield_10050": null,
      "customfield_11260": null,
      "customfield_10051": null,
      "customfield_11261": null,
      "customfield_10052": null,
      "customfield_10053": {
        "self": "https://jiratest.sword-apak.com/test/rest/api/2/customFieldOption/10046",
        "value": "N/A",
        "id": "10046"
      },
      "customfield_10054": null,
      "customfield_10055": null,
      "customfield_11660": null,
      "customfield_10056": null,
      "customfield_10057": null,
      "customfield_10058": null,
      "customfield_10059": null,
      "customfield_10962": null,
      "customfield_10963": null,
      "customfield_10964": null,
      "customfield_10965": null,
      "aggregatetimeestimate": null,
      "customfield_12060": null,
      "creator": {
        "self": "https://jiratest.sword-apak.com/test/rest/api/2/user?username=john.bartlett",
        "name": "john.bartlett",
        "key": "john.bartlett",
        "emailAddress": "john.bartlett@apakgroup.int",
        "avatarUrls": {
          "48x48": "https://jiratest.sword-apak.com/test/secure/useravatar?ownerId=john.bartlett&avatarId=10678",
          "24x24": "https://jiratest.sword-apak.com/test/secure/useravatar?size=small&ownerId=john.bartlett&avatarId=10678",
          "16x16": "https://jiratest.sword-apak.com/test/secure/useravatar?size=xsmall&ownerId=john.bartlett&avatarId=10678",
          "32x32": "https://jiratest.sword-apak.com/test/secure/useravatar?size=medium&ownerId=john.bartlett&avatarId=10678"
        },
        "displayName": "John Bartlett",
        "active": "True",
        "timeZone": "Europe/London"
      },
      "customfield_12061": null,
      "subtasks": [],
      "customfield_10040": null,
      "customfield_10560": null,
      "reporter": {
        "self": "https://jiratest.sword-apak.com/test/rest/api/2/user?username=john.bartlett",
        "name": "john.bartlett",
        "key": "john.bartlett",
        "emailAddress": "john.bartlett@apakgroup.int",
        "avatarUrls": {
          "48x48": "https://jiratest.sword-apak.com/test/secure/useravatar?ownerId=john.bartlett&avatarId=10678",
          "24x24": "https://jiratest.sword-apak.com/test/secure/useravatar?size=small&ownerId=john.bartlett&avatarId=10678",
          "16x16": "https://jiratest.sword-apak.com/test/secure/useravatar?size=xsmall&ownerId=john.bartlett&avatarId=10678",
          "32x32": "https://jiratest.sword-apak.com/test/secure/useravatar?size=medium&ownerId=john.bartlett&avatarId=10678"
        },
        "displayName": "John Bartlett",
        "active": "True",
        "timeZone": "Europe/London"
      },
      "aggregateprogress": {
        "progress": 0,
        "total": 0
      },
      "customfield_10200": null,
      "customfield_10960": null,
      "customfield_10961": [],
      "progress": {
        "progress": 0,
        "total": 0
      },
      "votes": {
        "self": "https://jiratest.sword-apak.com/test/rest/api/2/issue/SX-39637/votes",
        "votes": 0,
        "hasVoted": "False"
      },
      "worklog": {
        "startAt": 0,
        "maxResults": 20,
        "total": 0,
        "worklogs": []
      },
      "issuetype": {
        "self": "https://jiratest.sword-apak.com/test/rest/api/2/issuetype/3",
        "id": "3",
        "description": "A task that needs to be done.",
        "iconUrl": "https://jiratest.sword-apak.com/test/secure/viewavatar?size=xsmall&avatarId=11188&avatarType=issuetype",
        "name": "Task",
        "subtask": "False",
        "avatarId": 11188
      },
      "customfield_10270": null,
      "timespent": null,
      "customfield_10031": null,
      "project": {
        "self": "https://jiratest.sword-apak.com/test/rest/api/2/project/10020",
        "id": "10020",
        "key": "SX",
        "name": "WFSv6 Core",
        "avatarUrls": {
          "48x48": "https://jiratest.sword-apak.com/test/secure/projectavatar?pid=10020&avatarId=10011",
          "24x24": "https://jiratest.sword-apak.com/test/secure/projectavatar?size=small&pid=10020&avatarId=10011",
          "16x16": "https://jiratest.sword-apak.com/test/secure/projectavatar?size=xsmall&pid=10020&avatarId=10011",
          "32x32": "https://jiratest.sword-apak.com/test/secure/projectavatar?size=medium&pid=10020&avatarId=10011"
        },
        "projectCategory": {
          "self": "https://jiratest.sword-apak.com/test/rest/api/2/projectCategory/10180",
          "id": "10180",
          "description": "Wholesale Finance - Version 6 System Projects",
          "name": "WFSv6 System"
        }
      },
      "customfield_11760": "com.atlassian.servicedesk.plugins.approvals.internal.customfield.ApprovalsCFValue@4c7a74cc",
      "customfield_10034": null,
      "customfield_11762": null,
      "aggregatetimespent": null,
      "customfield_11761": null,
      "resolutiondate": null,
      "workratio": -1,
      "watches": {
        "self": "https://jiratest.sword-apak.com/test/rest/api/2/issue/SX-39637/watchers",
        "watchCount": 0,
        "isWatching": "False"
      },
      "customfield_12160": {
        "self": "https://jiratest.sword-apak.com/test/rest/api/2/customFieldOption/13391",
        "value": "All Sync ON",
        "id": "13391"
      },
      "created": "2018-08-15T16:11:56.932+0100",
      "customfield_10260": null,
      "customfield_10261": null,
      "customfield_10262": null,
      "customfield_10020": null,
      "customfield_10660": null,
      "customfield_10264": "9223372036854775807",
      "customfield_10265": null,
      "customfield_10023": null,
      "customfield_10266": null,
      "customfield_10026": {
        "self": "https://jiratest.sword-apak.com/test/rest/api/2/customFieldOption/10012",
        "value": "Yes",
        "id": "10012"
      },
      "updated": "2018-08-15T16:11:56.932+0100",
      "customfield_12390": null,
      "customfield_10091": null,
      "customfield_11180": null,
      "customfield_10092": null,
      "customfield_12392": null,
      "customfield_11181": null,
      "customfield_10093": null,
      "customfield_11182": null,
      "customfield_12391": null,
      "customfield_11061": null,
      "customfield_12394": null,
      "customfield_11062": null,
      "customfield_11183": null,
      "customfield_12393": null,
      "customfield_11063": null,
      "customfield_11184": null,
      "timeoriginalestimate": null,
      "customfield_11461": null,
      "customfield_12396": null,
      "customfield_11064": null,
      "description": "Blah BLah",
      "customfield_12395": null,
      "customfield_11460": null,
      "customfield_11065": null,
      "customfield_11463": null,
      "customfield_11462": null,
      "customfield_11860": null,
      "customfield_11464": null,
      "timetracking": {},
      "customfield_10008": null,
      "attachment": [],
      "summary": "JBT Test JIRA",
      "customfield_10080": null,
      "customfield_10081": null,
      "customfield_12260": null,
      "customfield_12381": null,
      "customfield_11170": null,
      "customfield_11171": null,
      "customfield_12380": null,
      "customfield_11172": null,
      "customfield_12383": null,
      "customfield_12262": {
        "self": "https://jiratest.sword-apak.com/test/rest/api/2/customFieldOption/13492",
        "value": "Mid",
        "id": "13492"
      },
      "customfield_11173": null,
      "customfield_12382": null,
      "customfield_12261": null,
      "customfield_10360": null,
      "customfield_12385": null,
      "customfield_11174": null,
      "customfield_12384": null,
      "customfield_11175": null,
      "customfield_11176": null,
      "customfield_12387": null,
      "customfield_11177": null,
      "customfield_12386": null,
      "customfield_10760": null,
      "customfield_10122": null,
      "customfield_12389": null,
      "customfield_11178": null,
      "customfield_12388": null,
      "customfield_11179": null,
      "customfield_11964": null,
      "customfield_11963": null,
      "environment": null,
      "customfield_11966": null,
      "customfield_11965": null,
      "duedate": null,
      "comment": {
        "comments": [],
        "maxResults": 0,
        "total": 0,
        "startAt": 0
      }
    }
  }
}