{
  "graph": "http://www.sword-apak.com/graph#jira",
  "subject": {
    "prefix": "http://www.sword-apak.com/ontologies/Version/",
    "subjectField": "key"
  },
  "subjectFields": {
    "name": {
      "predicate": "http://www.w3.org/2000/01/rdf-schema#label",
      "type": "string"
    },
    "description": {
      "predicate": "http://www.w3.org/2000/01/rdf-schema#comment",
      "type": "string"
    },
    "release date": {
      "predicate": "http://www.sword-apak.com/ontologies/property#releaseDate",
      "type": "date",
      "format": "yyyy-MM-dd"
    },
    "product": {
      "predicate": "http://www.sword-apak.com/ontologies/property#forProduct",
      "type": "uri",
      "prefix": "http://www.sword-apak.com/ontologies/Product/"
    },
    "archived": {
      "predicate": "http://www.sword-apak.com/ontologies/property#isArchived",
      "type": "boolean"
    },
    "released": {
      "predicate": "http://www.sword-apak.com/ontologies/property#isReleased",
      "type": "boolean"
    }
  }
}


